%YAML 1.1
%TAG !u! tag:unity3d.com,2011:
--- !u!1 &31473572508407088
GameObject:
  m_ObjectHideFlags: 0
  m_CorrespondingSourceObject: {fileID: 0}
  m_PrefabInstance: {fileID: 0}
  m_PrefabAsset: {fileID: 0}
  serializedVersion: 6
  m_Component:
  - component: {fileID: 3873611243707354943}
  - component: {fileID: 6718136882753083364}
  m_Layer: 0
  m_Name: Level1
  m_TagString: Untagged
  m_Icon: {fileID: 0}
  m_NavMeshLayer: 0
  m_StaticEditorFlags: 0
  m_IsActive: 1
--- !u!4 &3873611243707354943
Transform:
  m_ObjectHideFlags: 0
  m_CorrespondingSourceObject: {fileID: 0}
  m_PrefabInstance: {fileID: 0}
  m_PrefabAsset: {fileID: 0}
  m_GameObject: {fileID: 31473572508407088}
  m_LocalRotation: {x: 0, y: 0, z: 0, w: 1}
  m_LocalPosition: {x: 0, y: 0, z: 0}
  m_LocalScale: {x: 1, y: 1, z: 1}
  m_Children: []
  m_Father: {fileID: 0}
  m_RootOrder: 0
  m_LocalEulerAnglesHint: {x: 0, y: 0, z: 0}
--- !u!114 &6718136882753083364
MonoBehaviour:
  m_ObjectHideFlags: 0
  m_CorrespondingSourceObject: {fileID: 0}
  m_PrefabInstance: {fileID: 0}
  m_PrefabAsset: {fileID: 0}
  m_GameObject: {fileID: 31473572508407088}
  m_Enabled: 1
  m_EditorHideFlags: 0
  m_Script: {fileID: 11500000, guid: ed242a9dc29f7476a86338e5416f48f2, type: 3}
  m_Name: 
  m_EditorClassIdentifier: 
  stagesPrefabs:
  - {fileID: 2491759077547293226, guid: 84de31511c50249a2978e05c72e44c80, type: 3}
  - {fileID: 2491759077547293226, guid: db333a6cd3e0b48c09b057a91ed0a351, type: 3}
  - {fileID: 8965473271639012855, guid: 499c870c3f508447596f2d107ff2d5cc, type: 3}
  - {fileID: 8960049982818160462, guid: b41dc52ac77214ea09442aaad4ee51b3, type: 3}
  - {fileID: 8960049982818160462, guid: 076399d81b14b44eb957df62d7c130ef, type: 3}
  SpawnedStages: []
