# Blender v2.79 (sub 0) OBJ File: 'hole.blend'
# www.blender.org
mtllib hole.mtl
o Cube_Cube.004
v -1.283917 0.430916 1.283917
v -1.283917 0.430917 -1.283917
v -1.283917 -0.430916 -1.283917
v -1.283917 -0.430917 1.283917
v 1.283917 0.430917 -1.283917
v 1.283917 -0.430916 -1.283917
v 1.283917 0.430916 1.283917
v 1.283917 -0.430917 1.283917
v -0.939307 -0.430916 0.032799
v -0.934731 -0.430916 0.098241
v -0.925601 -0.430916 0.163206
v -0.911962 -0.430916 0.227375
v -0.893880 -0.430916 0.290437
v -0.871443 -0.430916 0.352083
v -0.844760 -0.430916 0.412014
v -0.813961 -0.430916 0.469938
v -0.779198 -0.430916 0.525573
v -0.740636 -0.430916 0.578647
v -0.698469 -0.430916 0.628901
v -0.652897 -0.430917 0.676091
v -0.604145 -0.430917 0.719988
v -0.552449 -0.430917 0.760378
v -0.498062 -0.430917 0.797063
v -0.441249 -0.430917 0.829865
v -0.382285 -0.430917 0.858623
v -0.321459 -0.430917 0.883197
v -0.259067 -0.430917 0.903471
v -0.195413 -0.430917 0.919341
v -0.130807 -0.430917 0.930733
v -0.065563 -0.430917 0.937591
v -0.000001 -0.430917 0.939880
v 0.065562 -0.430917 0.937591
v 0.130805 -0.430917 0.930733
v 0.195411 -0.430917 0.919342
v 0.259065 -0.430917 0.903471
v 0.321457 -0.430917 0.883199
v 0.382284 -0.430917 0.858623
v 0.441246 -0.430917 0.829865
v 0.498061 -0.430917 0.797063
v 0.552448 -0.430917 0.760379
v 0.604143 -0.430917 0.719990
v 0.652896 -0.430917 0.676094
v 0.698468 -0.430916 0.628902
v 0.740635 -0.430916 0.578648
v 0.779196 -0.430916 0.525574
v 0.813960 -0.430916 0.469941
v 0.844758 -0.430916 0.412017
v 0.871442 -0.430916 0.352085
v 0.893880 -0.430916 0.290439
v 0.911962 -0.430916 0.227378
v 0.925601 -0.430916 0.163208
v 0.934731 -0.430916 0.098244
v 0.939307 -0.430916 0.032801
v 0.939307 -0.430916 -0.032802
v -0.441244 -0.430916 -0.829866
v -0.382280 -0.430916 -0.858625
v -0.844757 -0.430916 -0.412019
v -0.813958 -0.430916 -0.469943
v -0.740634 -0.430916 -0.578651
v -0.698465 -0.430916 -0.628905
v 0.321458 -0.430916 -0.883199
v 0.382284 -0.430916 -0.858623
v 0.779196 -0.430916 -0.525574
v 0.813960 -0.430916 -0.469941
v 0.441248 -0.430916 -0.829865
v 0.498061 -0.430916 -0.797063
v -0.498057 -0.430916 -0.797066
v 0.195412 -0.430916 -0.919342
v 0.259066 -0.430916 -0.903471
v 0.552448 -0.430916 -0.760379
v 0.604143 -0.430916 -0.719990
v -0.779194 -0.430916 -0.525577
v -0.321454 -0.430916 -0.883200
v -0.259062 -0.430916 -0.903472
v 0.000000 -0.430916 -0.939880
v 0.065563 -0.430916 -0.937591
v -0.911961 -0.430916 -0.227380
v -0.893878 -0.430916 -0.290441
v 0.871442 -0.430916 -0.352085
v 0.893880 -0.430916 -0.290439
v 0.844758 -0.430916 -0.412017
v -0.652894 -0.430916 -0.676095
v -0.604141 -0.430916 -0.719992
v 0.925601 -0.430916 -0.163209
v 0.934731 -0.430916 -0.098244
v -0.871441 -0.430916 -0.352089
v -0.925601 -0.430916 -0.163212
v -0.195408 -0.430916 -0.919342
v -0.130802 -0.430916 -0.930735
v -0.065558 -0.430916 -0.937591
v -0.552445 -0.430916 -0.760381
v 0.911962 -0.430916 -0.227378
v -0.939307 -0.430916 -0.032804
v 0.698468 -0.430916 -0.628902
v 0.740635 -0.430916 -0.578649
v 0.130805 -0.430916 -0.930733
v -0.934731 -0.430916 -0.098247
v 0.652896 -0.430916 -0.676093
v -0.981359 0.427956 0.000161
v -0.939307 0.398312 0.004278
v -0.981021 0.430916 -0.034261
v -0.939307 0.398312 -0.032804
v -0.976242 0.430916 -0.102609
v -0.934731 0.398312 -0.098247
v -0.966707 0.430916 -0.170459
v -0.925601 0.398312 -0.163211
v -0.952460 0.430916 -0.237479
v -0.911961 0.398312 -0.227380
v -0.933575 0.430916 -0.303340
v -0.893878 0.398312 -0.290441
v -0.910141 0.430916 -0.367724
v -0.871441 0.398312 -0.352088
v -0.882272 0.430916 -0.430316
v -0.844757 0.398312 -0.412019
v -0.850105 0.430916 -0.490813
v -0.813958 0.398312 -0.469943
v -0.813797 0.430916 -0.548917
v -0.779194 0.398312 -0.525576
v -0.773525 0.430916 -0.604348
v -0.740634 0.398312 -0.578651
v -0.729483 0.430917 -0.656834
v -0.698465 0.398312 -0.628905
v -0.681888 0.430917 -0.706120
v -0.652894 0.398312 -0.676095
v -0.630970 0.430917 -0.751967
v -0.604141 0.398312 -0.719992
v -0.576979 0.430917 -0.794148
v -0.552445 0.398312 -0.760381
v -0.520175 0.430917 -0.832463
v -0.498057 0.398312 -0.797066
v -0.460839 0.430917 -0.866720
v -0.441244 0.398312 -0.829866
v -0.399257 0.430917 -0.896755
v -0.382280 0.398312 -0.858625
v -0.335729 0.430917 -0.922422
v -0.321454 0.398312 -0.883200
v -0.270568 0.430917 -0.943594
v -0.259062 0.398312 -0.903472
v -0.204086 0.430917 -0.960169
v -0.195408 0.398312 -0.919342
v -0.136611 0.430917 -0.972067
v -0.130802 0.398312 -0.930734
v -0.068469 0.430917 -0.979228
v -0.065558 0.398312 -0.937591
v -0.000000 0.430917 -0.981619
v 0.000000 0.398312 -0.939880
v 0.068475 0.430917 -0.979228
v 0.065563 0.398312 -0.937591
v 0.136615 0.430917 -0.972066
v 0.130805 0.398312 -0.930733
v 0.204091 0.430917 -0.960168
v 0.195412 0.398312 -0.919341
v 0.259066 0.398312 -0.903471
v 0.270571 0.430917 -0.943593
v 0.335735 0.430917 -0.922420
v 0.321458 0.398312 -0.883199
v 0.382284 0.398312 -0.858623
v 0.399260 0.430917 -0.896754
v 0.460843 0.430917 -0.866718
v 0.441248 0.398312 -0.829865
v 0.520179 0.430917 -0.832460
v 0.498061 0.398312 -0.797063
v 0.576981 0.430917 -0.794147
v 0.552448 0.398312 -0.760379
v 0.630973 0.430917 -0.751964
v 0.604143 0.398312 -0.719990
v 0.652896 0.398312 -0.676093
v 0.681890 0.430917 -0.706118
v 0.698468 0.398312 -0.628902
v 0.729486 0.430917 -0.656831
v 0.773527 0.430916 -0.604345
v 0.740635 0.398312 -0.578648
v 0.779196 0.398312 -0.525574
v 0.813800 0.430916 -0.548914
v 0.850107 0.430916 -0.490810
v 0.813960 0.398312 -0.469941
v 0.882274 0.430916 -0.430313
v 0.844758 0.398312 -0.412017
v 0.910142 0.430916 -0.367720
v 0.871442 0.398312 -0.352085
v 0.893880 0.398312 -0.290439
v 0.933576 0.430916 -0.303338
v 0.952462 0.430916 -0.237475
v 0.911962 0.398312 -0.227378
v 0.966707 0.430916 -0.170457
v 0.925601 0.398312 -0.163209
v 0.934731 0.398312 -0.098244
v 0.976242 0.430916 -0.102606
v 0.939307 0.398312 -0.032801
v 0.984311 0.433154 -0.023657
v 0.939307 0.398312 0.032802
v 0.985163 0.432813 0.037979
v 0.270569 0.430916 0.943593
v 0.259065 0.398312 0.903471
v 0.335732 0.430916 0.922421
v 0.321457 0.398312 0.883199
v 0.460842 0.430916 0.866719
v 0.441246 0.398312 0.829865
v 0.520180 0.430916 0.832460
v 0.498061 0.398312 0.797063
v 0.729486 0.430916 0.656832
v 0.698468 0.398312 0.628902
v 0.740635 0.398312 0.578649
v 0.773527 0.430916 0.604345
v 0.882274 0.430916 0.430313
v 0.844758 0.398312 0.412017
v 0.910142 0.430916 0.367721
v 0.871442 0.398312 0.352085
v 0.933576 0.430916 0.303338
v 0.893880 0.398312 0.290439
v -0.136616 0.430916 0.972066
v -0.130807 0.398312 0.930733
v -0.068475 0.430916 0.979228
v -0.065563 0.398312 0.937591
v -0.850108 0.430916 0.490808
v -0.813961 0.398312 0.469938
v -0.779198 0.398312 0.525573
v -0.813801 0.430916 0.548913
v 0.850107 0.430916 0.490810
v 0.813960 0.398312 0.469941
v 0.604143 0.398312 0.719990
v 0.630972 0.430916 0.751964
v 0.652896 0.398312 0.676094
v 0.681891 0.430916 0.706119
v -0.270573 0.430916 0.943593
v -0.259067 0.398312 0.903471
v -0.204092 0.430916 0.960168
v -0.195413 0.398312 0.919341
v -0.498062 0.398312 0.797063
v -0.520181 0.430916 0.832460
v -0.460845 0.430916 0.866718
v -0.441249 0.398312 0.829865
v -0.000001 0.430916 0.981619
v -0.000001 0.398312 0.939880
v -0.740636 0.398312 0.578647
v -0.773528 0.430916 0.604344
v -0.729487 0.430916 0.656831
v -0.698469 0.398312 0.628901
v -0.952462 0.430916 0.237473
v -0.911962 0.398312 0.227375
v -0.933576 0.430916 0.303335
v -0.893880 0.398312 0.290437
v 0.979499 0.432994 0.103898
v 0.934731 0.398312 0.098244
v 0.966707 0.430916 0.170455
v 0.925601 0.398312 0.163208
v 0.952462 0.430916 0.237475
v 0.911962 0.398312 0.227378
v 0.813800 0.430916 0.548914
v 0.779196 0.398312 0.525574
v 0.576981 0.430916 0.794147
v 0.552448 0.398312 0.760379
v 0.399261 0.430916 0.896754
v 0.382284 0.398312 0.858623
v 0.204089 0.430916 0.960169
v 0.195411 0.398312 0.919342
v 0.136614 0.430916 0.972066
v 0.130805 0.398312 0.930733
v 0.068474 0.430916 0.979228
v 0.065562 0.398312 0.937591
v -0.335735 0.430916 0.922420
v -0.321459 0.398312 0.883197
v -0.399262 0.430916 0.896754
v -0.382285 0.398312 0.858623
v -0.576983 0.430916 0.794146
v -0.552449 0.398312 0.760378
v -0.630974 0.430916 0.751963
v -0.604145 0.398312 0.719989
v -0.681892 0.430916 0.706116
v -0.652897 0.398312 0.676091
v -0.882275 0.430916 0.430311
v -0.844760 0.398312 0.412014
v -0.910143 0.430916 0.367720
v -0.871443 0.398312 0.352083
v -0.966707 0.430916 0.170455
v -0.925601 0.398312 0.163206
v -0.976242 0.430916 0.102604
v -0.934731 0.398312 0.098242
v -0.981021 0.430916 0.034256
v -0.939307 0.398312 0.032799
vn -1.0000 0.0000 0.0000
vn 0.0000 0.0000 -1.0000
vn 1.0000 0.0000 0.0000
vn 0.0000 -0.0000 1.0000
vn 0.9976 0.0000 0.0698
vn -0.0000 -1.0000 -0.0000
vn 0.3746 -0.0000 0.9272
vn -0.3746 0.0000 -0.9272
vn 0.8480 -0.0000 0.5299
vn 0.7193 -0.0000 0.6947
vn -0.5592 0.0000 -0.8290
vn -0.4384 -0.0000 0.8988
vn -0.8090 0.0000 -0.5878
vn -0.9397 0.0000 -0.3420
vn -0.8829 -0.0000 0.4695
vn -0.5592 -0.0000 0.8290
vn -0.9613 0.0000 -0.2756
vn 0.4384 -0.0000 0.8988
vn 0.0349 0.0000 -0.9994
vn -0.9976 0.0000 -0.0698
vn -0.3090 -0.0000 0.9511
vn 0.8090 0.0000 -0.5878
vn -0.9135 0.0000 -0.4067
vn -0.6691 -0.0000 0.7431
vn 0.8090 -0.0000 0.5878
vn 0.2419 -0.0000 0.9703
vn -0.1045 -0.0000 0.9945
vn 0.9397 -0.0000 0.3420
vn -0.9613 0.0000 0.2756
vn -0.9397 -0.0000 0.3420
vn -0.9135 -0.0000 0.4067
vn -0.6157 0.0000 -0.7880
vn 0.5000 0.0000 -0.8660
vn 0.6157 -0.0000 0.7880
vn 0.5592 0.0000 -0.8290
vn 0.8829 0.0000 -0.4695
vn 0.7193 0.0000 -0.6947
vn -0.9976 0.0000 0.0698
vn 0.9135 -0.0000 0.4067
vn 0.9613 0.0000 0.2756
vn 0.9397 0.0000 -0.3420
vn 0.6691 -0.0000 0.7431
vn 0.0015 1.0000 0.0001
vn -0.0015 1.0000 -0.0001
vn 0.0012 1.0000 0.0001
vn 0.1045 -0.0000 0.9945
vn -0.3090 0.0000 -0.9511
vn 0.0349 -0.0000 0.9994
vn 0.2419 0.0000 -0.9703
vn 0.5000 -0.0000 0.8660
vn -0.9903 -0.0000 0.1392
vn 0.1737 -0.0000 0.9848
vn 0.9135 0.0000 -0.4067
vn -0.0020 1.0000 -0.0001
vn 0.3746 0.0000 -0.9272
vn -0.8090 -0.0000 0.5878
vn 0.9976 0.0000 -0.0698
vn 0.6691 0.0000 -0.7431
vn -0.1736 0.0000 -0.9848
vn -0.7193 0.0000 -0.6946
vn -0.1736 -0.0000 0.9848
vn 0.9903 -0.0000 0.1392
vn 0.7660 0.0000 -0.6428
vn -0.8480 0.0000 -0.5299
vn 0.8829 -0.0000 0.4695
vn -0.5000 -0.0000 0.8660
vn -0.3746 -0.0000 0.9272
vn -0.7193 -0.0000 0.6947
vn -0.7660 -0.0000 0.6428
vn 0.8481 0.0000 -0.5299
vn 0.3090 0.0000 -0.9511
vn 0.4384 0.0000 -0.8988
vn -0.9781 0.0000 -0.2079
vn -0.8480 -0.0000 0.5299
vn 0.9903 0.0000 -0.1392
vn -0.6157 -0.0000 0.7880
vn 0.1737 0.0000 -0.9848
vn 0.6157 0.0000 -0.7880
vn -0.8829 0.0000 -0.4695
vn -0.7660 0.0000 -0.6428
vn 0.7660 -0.0000 0.6428
vn -0.2419 -0.0000 0.9703
vn -0.5000 0.0000 -0.8660
vn -0.9781 0.0000 0.2079
vn -0.9903 0.0000 -0.1392
vn -0.4384 0.0000 -0.8988
vn 0.9613 0.0000 -0.2756
vn -0.2419 0.0000 -0.9703
vn 0.9781 0.0000 0.2079
vn 0.5592 -0.0000 0.8290
vn -0.6691 0.0000 -0.7432
vn -0.1045 0.0000 -0.9945
vn 0.1045 0.0000 -0.9945
vn -0.0349 0.0000 -0.9994
vn -0.0349 -0.0000 0.9994
vn 0.9781 0.0000 -0.2079
vn 0.3090 -0.0000 0.9511
vn -0.6043 0.7893 -0.1083
vn -0.5973 0.7881 -0.1489
vn -0.6044 0.7894 -0.1079
vn -0.6062 0.7881 0.1069
vn -0.6129 0.7876 0.0637
vn -0.6130 0.7876 0.0634
vn 0.2890 0.7881 0.5435
vn 0.2504 0.7881 0.5624
vn 0.1280 0.7881 0.6021
vn 0.0857 0.7881 0.6096
vn 0.0429 0.7881 -0.6141
vn 0.0000 0.7881 -0.6156
vn -0.3618 0.7881 0.4980
vn -0.3957 0.7881 0.4716
vn -0.0429 0.7881 -0.6141
vn -0.4851 0.7881 0.3790
vn -0.5104 0.7881 0.3442
vn 0.6122 0.7881 -0.0643
vn 0.6056 0.7947 -0.0420
vn 0.6057 0.7946 -0.0420
vn 0.5962 0.8028 -0.0045
vn 0.6045 0.7956 0.0395
vn 0.6046 0.7955 0.0396
vn 0.5961 0.8029 -0.0006
vn 0.4851 0.7881 -0.3790
vn 0.4575 0.7881 -0.4119
vn 0.5533 0.7881 -0.2699
vn 0.5708 0.7881 -0.2306
vn -0.4575 0.7881 -0.4119
vn -0.4276 0.7881 -0.4428
vn 0.5973 0.7881 0.1489
vn 0.5855 0.7881 0.1902
vn -0.2105 0.7881 0.5785
vn -0.2504 0.7881 0.5624
vn -0.4851 0.7881 -0.3790
vn -0.5103 0.7881 -0.3442
vn -0.1280 0.7881 -0.6021
vn -0.0857 0.7881 -0.6096
vn 0.3262 0.7881 0.5221
vn 0.5331 0.7881 -0.3078
vn 0.4575 0.7881 0.4119
vn 0.4276 0.7881 0.4428
vn -0.0429 0.7881 0.6141
vn -0.0857 0.7881 0.6096
vn -0.6121 0.7903 0.0260
vn -0.6110 0.7913 0.0215
vn 0.1697 0.7881 0.5917
vn 0.5104 0.7881 -0.3442
vn -0.1697 0.7881 -0.5917
vn -0.3262 0.7881 -0.5221
vn -0.3618 0.7881 -0.4980
vn -0.4276 0.7881 0.4428
vn 0.4276 0.7881 -0.4428
vn -0.5708 0.7881 0.2306
vn -0.5855 0.7881 0.1902
vn 0.5855 0.7881 -0.1902
vn -0.3957 0.7881 -0.4716
vn 0.0000 0.7881 0.6156
vn -0.5331 0.7881 0.3078
vn 0.6062 0.7881 0.1069
vn 0.3618 0.7881 -0.4980
vn 0.3957 0.7881 -0.4716
vn 0.1697 0.7881 -0.5917
vn 0.2105 0.7881 -0.5785
vn -0.2890 0.7881 0.5435
vn -0.5331 0.7881 -0.3078
vn 0.5533 0.7881 0.2699
vn 0.5331 0.7881 0.3078
vn 0.3618 0.7881 0.4980
vn -0.1280 0.7881 0.6021
vn 0.4851 0.7881 0.3790
vn -0.6052 0.7958 -0.0199
vn -0.6050 0.7959 -0.0220
vn -0.2105 0.7881 -0.5785
vn 0.2105 0.7881 0.5785
vn -0.5533 0.7881 -0.2699
vn -0.2890 0.7881 -0.5435
vn -0.2504 0.7881 -0.5624
vn 0.5973 0.7881 -0.1489
vn 0.6062 0.7881 -0.1069
vn -0.6044 0.7938 -0.0681
vn -0.5973 0.7881 0.1489
vn -0.4575 0.7881 0.4119
vn 0.0429 0.7881 0.6141
vn 0.6122 0.7881 0.0643
vn -0.5533 0.7881 0.2699
vn -0.5708 0.7881 -0.2306
vn 0.3957 0.7881 0.4716
vn 0.5708 0.7881 0.2306
vn -0.3262 0.7881 0.5221
vn -0.1697 0.7881 0.5917
vn 0.5103 0.7881 0.3442
vn 0.3262 0.7881 -0.5220
vn 0.2890 0.7881 -0.5435
vn 0.0857 0.7881 -0.6096
vn 0.1280 0.7881 -0.6021
vn -0.5855 0.7881 -0.1902
vn 0.2504 0.7881 -0.5624
usemtl None
s 1
f 1//1 2//1 3//1 4//1
f 2//2 5//2 6//2 3//2
f 5//3 7//3 8//3 6//3
f 7//4 1//4 4//4 8//4
f 93//5 97//5 104//5 102//5
f 6//6 8//6 4//6 9//6 10//6 11//6 12//6 13//6 14//6 15//6 16//6 17//6 18//6 19//6 20//6 21//6 22//6 23//6 24//6 25//6 26//6 27//6 28//6 29//6 30//6 31//6 32//6 33//6 34//6 35//6 36//6 37//6 38//6 39//6 40//6 41//6 42//6 43//6 44//6 45//6 46//6 47//6 48//6 49//6 50//6 51//6 52//6 53//6 54//6
f 56//7 73//7 136//7 134//7
f 37//8 36//8 196//8 254//8
f 58//9 72//9 118//9 116//9
f 60//10 82//10 124//10 122//10
f 40//11 39//11 200//11 252//11
f 62//12 65//12 160//12 157//12
f 45//13 44//13 203//13 250//13
f 49//14 48//14 208//14 210//14
f 64//15 81//15 178//15 176//15
f 66//16 70//16 164//16 162//16
f 50//17 49//17 210//17 248//17
f 55//18 56//18 134//18 132//18
f 31//19 30//19 214//19 234//19
f 53//20 52//20 244//20 191//20
f 69//21 61//21 156//21 153//21
f 18//22 17//22 217//22 235//22
f 48//23 47//23 206//23 208//23
f 71//24 98//24 167//24 166//24
f 72//25 59//25 120//25 118//25
f 74//26 88//26 140//26 138//26
f 76//27 96//27 150//27 148//27
f 78//28 86//28 112//28 110//28
f 80//29 92//29 184//29 181//29
f 79//30 80//30 181//30 180//30
f 81//31 79//31 180//31 178//31
f 41//32 40//32 252//32 221//32
f 24//33 23//33 229//33 232//33
f 83//34 91//34 128//34 126//34
f 23//35 22//35 266//35 229//35
f 16//36 15//36 272//36 216//36
f 20//37 19//37 238//37 270//37
f 85//38 54//38 189//38 187//38
f 86//39 57//39 114//39 112//39
f 77//40 78//40 110//40 108//40
f 14//41 13//41 242//41 274//41
f 82//42 83//42 126//42 124//42
f 2//43 1//44 99//45 101//43 103//43 105//43 107//43 109//43 111//43 113//43 115//43 117//43 119//43 121//43 123//43 125//43 127//43 129//43 131//43 133//43 135//43 137//43 139//43 141//43 143//43 145//43 147//43 149//43 151//43 154//43 155//43 158//43 159//43 161//43 163//43 165//43 168//43 170//43 171//43 174//43 175//43 177//43 179//43 182//43 183//43 185//43 188//43 190//43 192//45 7//44 5//43
f 89//46 90//46 144//46 142//46
f 36//47 35//47 194//47 196//47
f 90//48 75//48 146//48 144//48
f 28//49 27//49 226//49 228//49
f 67//50 55//50 132//50 130//50
f 84//51 85//51 187//51 186//51
f 88//52 89//52 142//52 140//52
f 15//53 14//53 274//53 272//53
f 1//44 7//44 192//45 243//54 245//54 247//54 209//54 207//54 205//54 219//54 249//54 204//54 201//54 224//54 222//54 251//54 199//54 197//54 253//54 195//54 193//54 255//54 257//54 259//54 233//54 213//54 211//54 227//54 225//54 261//54 263//54 231//54 230//54 265//54 267//54 269//54 237//54 236//54 218//54 215//54 271//54 273//54 241//54 239//54 275//54 277//54 279//54 99//45
f 26//55 25//55 264//55 262//55
f 95//56 63//56 173//56 172//56
f 10//57 9//57 280//57 278//57
f 21//58 20//58 270//58 268//58
f 34//59 33//59 258//59 256//59
f 43//60 42//60 223//60 202//60
f 96//61 68//61 152//61 150//61
f 97//62 87//62 106//62 104//62
f 19//63 18//63 235//63 238//63
f 4//6 3//6 6//6 54//6 85//6 84//6 92//6 80//6 79//6 81//6 64//6 63//6 95//6 94//6 98//6 71//6 70//6 66//6 65//6 62//6 61//6 69//6 68//6 96//6 76//6 75//6 90//6 89//6 88//6 74//6 73//6 56//6 55//6 67//6 91//6 83//6 82//6 60//6 59//6 72//6 58//6 57//6 86//6 78//6 77//6 87//6 97//6 93//6 9//6
f 46//64 45//64 250//64 220//64
f 57//65 58//65 116//65 114//65
f 65//66 66//66 162//66 160//66
f 54//1 53//1 191//1 189//1
f 61//67 62//67 157//67 156//67
f 98//68 94//68 169//68 167//68
f 94//69 95//69 172//69 169//69
f 17//70 16//70 216//70 217//70
f 27//71 26//71 262//71 226//71
f 25//72 24//72 232//72 264//72
f 51//73 50//73 248//73 246//73
f 63//74 64//74 176//74 173//74
f 11//75 10//75 278//75 276//75
f 70//76 71//76 166//76 164//76
f 29//77 28//77 228//77 212//77
f 22//78 21//78 268//78 266//78
f 47//79 46//79 220//79 206//79
f 44//80 43//80 202//80 203//80
f 59//81 60//81 122//81 120//81
f 68//82 69//82 153//82 152//82
f 39//83 38//83 198//83 200//83
f 92//84 84//84 186//84 184//84
f 52//85 51//85 246//85 244//85
f 38//86 37//86 254//86 198//86
f 13//87 12//87 240//87 242//87
f 35//88 34//88 256//88 194//88
f 87//89 77//89 108//89 106//89
f 91//90 67//90 130//90 128//90
f 42//91 41//91 221//91 223//91
f 33//92 32//92 260//92 258//92
f 30//93 29//93 212//93 214//93
f 32//94 31//94 234//94 260//94
f 75//95 76//95 148//95 146//95
f 12//96 11//96 276//96 240//96
f 73//97 74//97 138//97 136//97
f 246//98 248//99 247//99 245//100
f 186//101 187//102 188//103 185//101
f 132//104 134//105 133//105 131//104
f 140//106 142//107 141//107 139//106
f 213//108 233//109 234//109 214//108
f 164//110 166//111 165//111 163//110
f 233//109 259//112 260//112 234//109
f 172//113 173//114 174//114 171//113
f 278//115 280//116 279//117 277//115
f 100//118 102//119 101//120 99//121
f 236//122 237//123 238//123 235//122
f 272//124 274//125 273//125 271//124
f 202//126 223//127 224//127 201//126
f 108//128 110//129 109//129 107//128
f 156//130 157//131 158//131 155//130
f 204//132 249//133 250//133 203//132
f 256//134 258//135 257//135 255//134
f 130//136 132//104 131//104 129//136
f 216//137 272//124 271//124 215//137
f 122//138 124//139 123//139 121//138
f 201//126 204//132 203//132 202//126
f 148//140 150//141 149//141 147//140
f 187//102 189//142 190//143 188//103
f 138//144 140//106 139//106 137//144
f 218//145 236//122 235//122 217//145
f 194//146 256//134 255//134 193//146
f 199//147 251//148 252//148 200//147
f 166//111 167//149 168//149 165//111
f 237//123 269//150 270//150 238//123
f 180//151 181//152 182//152 179//151
f 241//153 273//125 274//125 242//153
f 222//154 224//127 223//127 221//154
f 146//155 148//140 147//140 145//155
f 215//137 218//145 217//145 216//137
f 173//114 176//156 175//156 174//114
f 106//157 108//128 107//128 105//157
f 266//158 268//159 267//159 265//158
f 226//160 262//161 261//161 225//160
f 157//131 160//162 159//162 158//131
f 220//163 250//133 249//133 219//163
f 114//164 116//165 115//165 113//164
f 258//135 260//112 259//112 257//135
f 128//166 130//136 129//136 127//166
f 150//141 152//167 151//167 149//141
f 120//168 122//138 121//138 119//168
f 189//142 191//169 192//170 190//143
f 193//146 195//171 196//171 194//146
f 136//172 138//144 137//144 135//172
f 206//173 220//163 219//163 205//173
f 198//174 254//175 253//175 197//174
f 240//176 276//177 275//177 239//176
f 191//169 244//178 243//178 192//170
f 181//152 184//179 183//179 182//152
f 167//149 169//180 170//180 168//149
f 144//181 146//155 145//155 143//181
f 104//182 106//157 105//157 103//182
f 239//176 241//153 242//153 240//176
f 268//159 270//150 269//150 267//159
f 176//156 178//183 177//183 175//156
f 205//173 207//184 208//184 206//173
f 126//185 128//166 127//166 125//185
f 112//186 114//164 113//164 111//186
f 160//162 162//187 161//187 159//162
f 152//167 153//188 154//188 151//167
f 118//189 120//168 119//168 117//189
f 230//190 231//191 232//191 229//190
f 99//121 279//117 280//116 100//118
f 212//192 228//193 227//193 211//192
f 207//184 209//194 210//194 208//184
f 134//105 136//172 135//172 133//105
f 211//192 213//108 214//108 212//192
f 184//179 186//101 185//101 183//179
f 142//107 144//181 143//181 141//107
f 229//190 266//158 265//158 230//190
f 169//180 172//113 171//113 170//180
f 244//178 246//98 245//100 243//178
f 225//160 227//193 228//193 226//160
f 102//119 104//182 103//182 101//120
f 178//183 180//151 179//151 177//183
f 221//154 252//148 251//148 222//154
f 110//129 112//186 111//186 109//129
f 262//161 264//195 263//195 261//161
f 276//177 278//115 277//115 275//177
f 162//187 164//110 163//110 161//187
f 124//139 126//185 125//185 123//139
f 153//188 156//130 155//130 154//188
f 209//194 247//99 248//99 210//194
f 197//174 199//147 200//147 198//174
f 195//171 253//175 254//175 196//171
f 116//165 118//189 117//189 115//165
f 231//191 263//195 264//195 232//191
f 9//3 93//3 102//3 100//3 280//3
