# 3ds Max Wavefront OBJ Exporter v0.97b - (c)2007 guruware
# File Created: 05.10.2019 14:43:06

#
# object Box001
#

v  -23.5660 0.0000 57.1908
v  -27.3765 0.0000 56.7674
v  -30.3403 0.0000 55.4972
v  -32.4572 0.0000 53.3802
v  -33.7274 0.0000 50.4165
v  -34.1508 0.0000 46.6060
v  -34.1508 0.0000 -39.1749
v  -33.7274 0.0000 -42.9854
v  -32.4572 0.0000 -45.9492
v  -30.3403 0.0000 -48.0661
v  -27.3765 0.0000 -49.3363
v  -23.5660 0.0000 -49.7597
v  31.6171 0.0000 -49.7597
v  35.4276 0.0000 -49.3363
v  38.3913 0.0000 -48.0661
v  40.5083 0.0000 -45.9492
v  41.7784 0.0000 -42.9854
v  42.2018 0.0000 -39.1749
v  42.2018 0.0000 46.6060
v  41.7784 0.0000 50.4165
v  40.5083 0.0000 53.3802
v  38.3913 0.0000 55.4972
v  35.4276 0.0000 56.7674
v  31.6171 0.0000 57.1908
v  -34.1508 16.3857 46.6060
v  -33.7274 16.3857 50.4165
v  -32.4572 16.3857 53.3802
v  -30.3403 16.3857 55.4972
v  -27.3765 16.3857 56.7674
v  -23.5660 16.3857 57.1908
v  31.6171 16.3857 57.1908
v  35.4276 16.3857 56.7674
v  38.3913 16.3857 55.4972
v  40.5083 16.3857 53.3802
v  41.7784 16.3857 50.4165
v  42.2018 16.3857 46.6060
v  42.2018 16.3857 -39.1749
v  41.7784 16.3857 -42.9854
v  40.5083 16.3857 -45.9492
v  38.3913 16.3857 -48.0661
v  35.4276 16.3857 -49.3363
v  31.6171 16.3857 -49.7597
v  -23.5660 16.3857 -49.7597
v  -27.3765 16.3857 -49.3363
v  -30.3403 16.3857 -48.0661
v  -32.4572 16.3857 -45.9492
v  -33.7274 16.3857 -42.9854
v  -34.1508 16.3857 -39.1749
v  31.6171 10.6592 57.1908
v  -23.5660 10.6592 57.1908
v  42.2018 10.6592 -39.1749
v  42.2018 10.6592 46.6060
v  -23.5660 10.6592 -49.7597
v  31.6171 10.6592 -49.7597
v  -34.1508 10.6592 46.6060
v  -34.1508 10.6592 -39.1749
v  35.4276 10.6592 56.7674
v  41.7784 10.6592 -42.9854
v  -27.3765 10.6592 -49.3363
v  38.3913 10.6592 55.4972
v  40.5083 10.6592 53.3802
v  41.7784 10.6592 50.4165
v  40.5083 10.6592 -45.9491
v  38.3913 10.6592 -48.0661
v  35.4276 10.6592 -49.3363
v  -30.3403 10.6592 -48.0661
v  -32.4572 10.6592 -45.9491
v  -33.7274 10.6592 -42.9854
v  -27.3765 10.6592 56.7674
v  -30.3403 10.6592 55.4972
v  -32.4572 10.6592 53.3802
v  -33.7274 10.6592 50.4165
v  31.6523 18.5116 57.8264
v  -23.6012 18.5116 57.8264
v  -23.6482 18.5116 58.6745
v  31.6992 18.5116 58.6745
v  -27.5388 18.5116 57.3830
v  -27.7553 18.5116 58.2043
v  -30.6972 18.5116 56.0244
v  -31.1733 18.5116 56.7277
v  -32.9844 18.5116 53.7371
v  -33.6877 18.5116 54.2133
v  -34.3430 18.5116 50.5788
v  -35.1643 18.5116 50.7953
v  -34.7864 18.5116 46.6412
v  -35.6345 18.5116 46.6881
v  -34.7864 18.5116 -39.2101
v  -35.6345 18.5116 -39.2571
v  -34.3430 18.5116 -43.1477
v  -35.1643 18.5116 -43.3642
v  -32.9844 18.5116 -46.3061
v  -33.6877 18.5116 -46.7823
v  -30.6972 18.5116 -48.5933
v  -31.1733 18.5116 -49.2966
v  -27.5388 18.5116 -49.9519
v  -27.7553 18.5116 -50.7732
v  -23.6012 18.5116 -50.3953
v  -23.6482 18.5116 -51.2434
v  31.6523 18.5116 -50.3953
v  31.6992 18.5116 -51.2434
v  35.5899 18.5116 -49.9519
v  35.8064 18.5116 -50.7732
v  38.7482 18.5116 -48.5933
v  39.2244 18.5116 -49.2966
v  41.0354 18.5116 -46.3061
v  41.7387 18.5116 -46.7823
v  42.3941 18.5116 -43.1477
v  43.2153 18.5116 -43.3642
v  42.8375 18.5116 -39.2101
v  43.6855 18.5116 -39.2571
v  42.8375 18.5116 46.6412
v  43.6855 18.5116 46.6881
v  42.3941 18.5116 50.5788
v  43.2153 18.5116 50.7953
v  41.0354 18.5116 53.7372
v  41.7387 18.5116 54.2133
v  38.7482 18.5116 56.0244
v  39.2244 18.5116 56.7277
v  35.5899 18.5116 57.3830
v  35.8064 18.5116 58.2043
v  31.7344 10.6592 59.3101
v  -23.6834 10.6592 59.3101
v  35.9687 10.6592 58.8199
v  39.5813 10.6592 57.2549
v  42.2659 10.6592 54.5702
v  43.8309 10.6592 50.9576
v  44.3212 10.6592 46.7234
v  44.3212 10.6592 -39.2923
v  43.8309 10.6592 -43.5265
v  42.2659 10.6592 -47.1392
v  39.5813 10.6592 -49.8238
v  35.9687 10.6592 -51.3888
v  31.7344 10.6592 -51.8790
v  -23.6834 10.6592 -51.8790
v  -27.9176 10.6592 -51.3888
v  -31.5303 10.6592 -49.8238
v  -34.2149 10.6592 -47.1392
v  -35.7799 10.6592 -43.5265
v  -36.2702 10.6592 -39.2923
v  -36.2702 10.6592 46.7234
v  -35.7799 10.6592 50.9576
v  -34.2149 10.6592 54.5703
v  -31.5303 10.6592 57.2549
v  -27.9176 10.6592 58.8199
v  -23.5660 17.8750 57.1908
v  31.6171 17.8750 57.1908
v  -27.3765 17.8750 56.7674
v  -30.3403 17.8750 55.4972
v  -32.4572 17.8750 53.3802
v  -33.7274 17.8750 50.4165
v  -34.1508 17.8750 46.6060
v  -34.1508 17.8750 -39.1749
v  -33.7274 17.8750 -42.9854
v  -32.4572 17.8750 -45.9492
v  -30.3403 17.8750 -48.0661
v  -27.3765 17.8750 -49.3363
v  -23.5660 17.8750 -49.7597
v  31.6171 17.8750 -49.7597
v  35.4276 17.8750 -49.3363
v  38.3913 17.8750 -48.0661
v  40.5083 17.8750 -45.9492
v  41.7784 17.8750 -42.9854
v  42.2018 17.8750 -39.1749
v  42.2018 17.8750 46.6060
v  41.7784 17.8750 50.4165
v  40.5083 17.8750 53.3802
v  38.3913 17.8750 55.4972
v  35.4276 17.8750 56.7674
v  31.7344 17.8750 59.3101
v  -23.6834 17.8750 59.3101
v  35.9687 17.8750 58.8199
v  39.5813 17.8750 57.2549
v  42.2659 17.8750 54.5703
v  43.8309 17.8750 50.9576
v  44.3212 17.8750 46.7234
v  44.3212 17.8750 -39.2923
v  43.8309 17.8750 -43.5265
v  42.2659 17.8750 -47.1392
v  39.5813 17.8750 -49.8238
v  35.9687 17.8750 -51.3888
v  31.7344 17.8750 -51.8790
v  -23.6834 17.8750 -51.8790
v  -27.9176 17.8750 -51.3888
v  -31.5302 17.8750 -49.8238
v  -34.2149 17.8750 -47.1392
v  -35.7799 17.8750 -43.5265
v  -36.2702 17.8750 -39.2923
v  -36.2702 17.8750 46.7234
v  -35.7799 17.8750 50.9576
v  -34.2149 17.8750 54.5702
v  -31.5302 17.8750 57.2549
v  -27.9176 17.8750 58.8199
# 192 vertices

vn -0.0398 -0.6949 0.7180
vn -0.1880 -0.6756 0.7130
vn -0.4177 -0.6670 0.6170
vn -0.6170 -0.6670 0.4177
vn -0.7129 -0.6756 0.1880
vn -0.7180 -0.6949 0.0398
vn -0.7180 -0.6949 -0.0398
vn -0.7130 -0.6756 -0.1880
vn -0.6170 -0.6669 -0.4178
vn -0.4177 -0.6670 -0.6170
vn -0.1880 -0.6756 -0.7130
vn -0.0398 -0.6949 -0.7180
vn 0.0398 -0.6949 -0.7180
vn 0.1880 -0.6756 -0.7130
vn 0.4177 -0.6670 -0.6170
vn 0.6170 -0.6669 -0.4178
vn 0.7130 -0.6756 -0.1880
vn 0.7180 -0.6949 -0.0398
vn 0.7180 -0.6949 0.0398
vn 0.7130 -0.6756 0.1880
vn 0.6170 -0.6669 0.4178
vn 0.4177 -0.6670 0.6170
vn 0.1880 -0.6756 0.7130
vn 0.0398 -0.6949 0.7180
vn 0.7180 0.6949 -0.0398
vn 0.7130 0.6756 -0.1880
vn 0.6170 0.6670 -0.4177
vn 0.4177 0.6670 -0.6170
vn 0.1880 0.6756 -0.7130
vn 0.0398 0.6949 -0.7180
vn -0.0398 0.6949 -0.7180
vn -0.1880 0.6756 -0.7130
vn -0.4177 0.6670 -0.6170
vn -0.6170 0.6670 -0.4177
vn -0.7130 0.6756 -0.1880
vn -0.7180 0.6949 -0.0398
vn -0.7180 0.6949 0.0398
vn -0.7130 0.6756 0.1880
vn -0.6170 0.6670 0.4177
vn -0.4177 0.6670 0.6170
vn -0.1880 0.6756 0.7130
vn -0.0398 0.6949 0.7180
vn 0.0398 0.6949 0.7180
vn 0.1880 0.6756 0.7130
vn 0.4177 0.6670 0.6170
vn 0.6170 0.6670 0.4177
vn 0.7130 0.6756 0.1880
vn 0.7180 0.6949 0.0398
vn 0.0384 -0.7198 0.6932
vn -0.0384 -0.7198 0.6932
vn 0.6932 -0.7198 -0.0384
vn 0.6932 -0.7198 0.0384
vn -0.0384 -0.7198 -0.6932
vn 0.0384 -0.7198 -0.6932
vn -0.6932 -0.7198 0.0384
vn -0.6932 -0.7198 -0.0384
vn 0.1710 -0.7416 0.6486
vn 0.6486 -0.7416 -0.1710
vn -0.1710 -0.7416 -0.6486
vn 0.3694 -0.7523 0.5456
vn 0.5456 -0.7523 0.3694
vn 0.6486 -0.7416 0.1710
vn 0.5456 -0.7523 -0.3694
vn 0.3694 -0.7523 -0.5456
vn 0.1710 -0.7416 -0.6486
vn -0.3694 -0.7523 -0.5456
vn -0.5456 -0.7523 -0.3694
vn -0.6486 -0.7416 -0.1710
vn -0.1710 -0.7416 0.6486
vn -0.3694 -0.7523 0.5456
vn -0.5456 -0.7523 0.3694
vn -0.6486 -0.7417 0.1710
vn -0.0208 0.9287 -0.3703
vn 0.0208 0.9287 -0.3703
vn -0.0225 0.9189 0.3938
vn 0.0225 0.9189 0.3938
vn 0.0900 0.9363 -0.3396
vn -0.1065 0.9110 0.3984
vn 0.1919 0.9397 -0.2830
vn -0.2363 0.9073 0.3479
vn 0.2830 0.9397 -0.1919
vn -0.3479 0.9073 0.2363
vn 0.3396 0.9363 -0.0900
vn -0.3984 0.9110 0.1065
vn 0.3703 0.9287 -0.0208
vn -0.3938 0.9189 0.0225
vn 0.3703 0.9287 0.0208
vn -0.3938 0.9189 -0.0225
vn 0.3396 0.9363 0.0900
vn -0.3984 0.9110 -0.1065
vn 0.2830 0.9397 0.1919
vn -0.3479 0.9073 -0.2363
vn 0.1919 0.9397 0.2830
vn -0.2363 0.9073 -0.3479
vn 0.0900 0.9363 0.3396
vn -0.1065 0.9110 -0.3984
vn 0.0208 0.9287 0.3703
vn -0.0225 0.9189 -0.3938
vn -0.0208 0.9287 0.3703
vn 0.0225 0.9189 -0.3938
vn -0.0900 0.9363 0.3396
vn 0.1065 0.9110 -0.3984
vn -0.1919 0.9397 0.2830
vn 0.2363 0.9073 -0.3479
vn -0.2830 0.9397 0.1919
vn 0.3479 0.9073 -0.2363
vn -0.3396 0.9363 0.0900
vn 0.3984 0.9110 -0.1065
vn -0.3703 0.9287 0.0208
vn 0.3938 0.9189 -0.0225
vn -0.3703 0.9287 -0.0208
vn 0.3938 0.9189 0.0225
vn -0.3396 0.9363 -0.0900
vn 0.3984 0.9110 0.1065
vn -0.2830 0.9397 -0.1919
vn 0.3479 0.9073 0.2363
vn -0.1919 0.9397 -0.2830
vn 0.2363 0.9073 0.3479
vn -0.0900 0.9363 -0.3396
vn 0.1065 0.9110 0.3984
vn 0.0415 -0.6943 0.7185
vn -0.0414 -0.6944 0.7184
vn 0.1910 -0.6757 0.7120
vn 0.4188 -0.6673 0.6159
vn 0.6159 -0.6673 0.4188
vn 0.7121 -0.6756 0.1910
vn 0.7184 -0.6944 0.0415
vn 0.7184 -0.6944 -0.0415
vn 0.7121 -0.6756 -0.1910
vn 0.6159 -0.6673 -0.4188
vn 0.4188 -0.6673 -0.6159
vn 0.1910 -0.6757 -0.7120
vn 0.0415 -0.6943 -0.7185
vn -0.0415 -0.6943 -0.7185
vn -0.1910 -0.6757 -0.7120
vn -0.4188 -0.6673 -0.6159
vn -0.6159 -0.6673 -0.4188
vn -0.7121 -0.6756 -0.1910
vn -0.7184 -0.6944 -0.0415
vn -0.7184 -0.6944 0.0414
vn -0.7121 -0.6756 0.1910
vn -0.6159 -0.6673 0.4188
vn -0.4188 -0.6673 0.6159
vn -0.1910 -0.6757 0.7120
vn 0.0510 0.3875 -0.9204
vn -0.0510 0.3875 -0.9204
vn 0.2341 0.3959 -0.8879
vn 0.5138 0.4000 -0.7589
vn 0.7589 0.4000 -0.5138
vn 0.8879 0.3959 -0.2341
vn 0.9204 0.3875 -0.0510
vn 0.9204 0.3875 0.0510
vn 0.8879 0.3959 0.2341
vn 0.7589 0.4000 0.5138
vn 0.5138 0.4000 0.7589
vn 0.2341 0.3959 0.8879
vn 0.0510 0.3875 0.9204
vn -0.0510 0.3875 0.9204
vn -0.2341 0.3959 0.8879
vn -0.5138 0.4000 0.7589
vn -0.7589 0.4000 0.5138
vn -0.8879 0.3959 0.2341
vn -0.9204 0.3875 0.0510
vn -0.9204 0.3875 -0.0510
vn -0.8879 0.3959 -0.2341
vn -0.7589 0.4000 -0.5138
vn -0.5138 0.4000 -0.7589
vn -0.2341 0.3959 -0.8879
vn 0.0533 0.3778 0.9243
vn -0.0533 0.3778 0.9243
vn 0.2405 0.3706 0.8971
vn 0.5229 0.3674 0.7692
vn 0.7692 0.3674 0.5229
vn 0.8971 0.3706 0.2405
vn 0.9243 0.3778 0.0533
vn 0.9243 0.3778 -0.0533
vn 0.8971 0.3706 -0.2405
vn 0.7692 0.3674 -0.5229
vn 0.5229 0.3674 -0.7692
vn 0.2405 0.3706 -0.8971
vn 0.0533 0.3778 -0.9243
vn -0.0533 0.3778 -0.9243
vn -0.2405 0.3706 -0.8971
vn -0.5229 0.3674 -0.7692
vn -0.7692 0.3674 -0.5229
vn -0.8971 0.3706 -0.2405
vn -0.9243 0.3778 -0.0533
vn -0.9243 0.3778 0.0533
vn -0.8971 0.3706 0.2405
vn -0.7692 0.3675 0.5229
vn -0.5229 0.3675 0.7692
vn -0.2405 0.3706 0.8971
# 192 vertex normals

vt 0.8614 0.0000 0.0000
vt 0.9113 0.0040 0.0000
vt 0.9501 0.0158 0.0000
vt 0.9778 0.0356 0.0000
vt 0.9945 0.0633 0.0000
vt 1.0000 0.0990 0.0000
vt 1.0000 0.9010 0.0000
vt 0.9945 0.9367 0.0000
vt 0.9778 0.9644 0.0000
vt 0.9501 0.9842 0.0000
vt 0.9113 0.9960 0.0000
vt 0.8614 1.0000 0.0000
vt 0.1386 1.0000 0.0000
vt 0.0887 0.9960 0.0000
vt 0.0499 0.9842 0.0000
vt 0.0222 0.9644 0.0000
vt 0.0055 0.9367 0.0000
vt 0.0000 0.9010 0.0000
vt 0.0000 0.0990 0.0000
vt 0.0055 0.0633 0.0000
vt 0.0222 0.0356 0.0000
vt 0.0499 0.0158 0.0000
vt 0.0887 0.0040 0.0000
vt 0.1386 0.0000 0.0000
vt 0.8614 0.6505 0.0000
vt 0.1386 0.6505 0.0000
vt 0.0990 0.0000 0.0000
vt 0.9010 0.0000 0.0000
vt 0.9010 0.6505 0.0000
vt 0.0990 0.6505 0.0000
vt -0.9731 -0.0000 0.0000
vt -0.7587 -0.0000 0.0000
vt -0.7587 0.6505 0.0000
vt -0.9731 0.6505 0.0000
vt -0.6947 -0.0000 0.0000
vt -0.5281 -0.0000 0.0000
vt -0.5281 0.6505 0.0000
vt -0.6947 0.6505 0.0000
vt -0.5443 -0.0000 0.0000
vt -0.5443 0.6505 0.0000
vt -0.3299 -0.0000 0.0000
vt -0.3299 0.6505 0.0000
vt -0.1155 -0.0000 0.0000
vt -0.1155 0.6505 0.0000
vt -0.3614 -0.0000 0.0000
vt -0.3614 0.6505 0.0000
vt -0.1947 -0.0000 0.0000
vt -0.1947 0.6505 0.0000
vt -0.0280 -0.0000 0.0000
vt -0.0280 0.6505 0.0000
vt 1.7587 0.6505 0.0000
vt 1.7587 0.0000 0.0000
vt 1.9731 0.0000 0.0000
vt 1.9731 0.6505 0.0000
vt 1.5443 0.6505 0.0000
vt 1.5443 0.0000 0.0000
vt 1.3299 0.6505 0.0000
vt 1.3299 0.0000 0.0000
vt 1.1155 0.6505 0.0000
vt 1.1155 0.0000 0.0000
vt 1.9731 1.0000 0.0000
vt 1.7587 1.0000 0.0000
vt 1.5443 1.0000 0.0000
vt 1.3299 1.0000 0.0000
vt 1.1155 1.0000 0.0000
vt 0.9010 1.0000 0.0000
vt 0.0990 1.0000 0.0000
vt -0.1155 1.0000 0.0000
vt -0.3299 1.0000 0.0000
vt -0.5443 1.0000 0.0000
vt -0.7587 1.0000 0.0000
vt -0.9731 1.0000 0.0000
vt -0.0280 1.0000 0.0000
vt -0.1947 1.0000 0.0000
vt -0.3614 1.0000 0.0000
vt -0.5281 1.0000 0.0000
vt -0.6947 1.0000 0.0000
# 77 texture coords

o Box001
g Box001
s 1
f 1/1/1 2/2/2 3/3/3 4/4/4 5/5/5 6/6/6 7/7/7 8/8/8 9/9/9 10/10/10 11/11/11 12/12/12 13/13/13 14/14/14 15/15/15 16/16/16 17/17/17 18/18/18 19/19/19 20/20/20 21/21/21 22/22/22 23/23/23 24/24/24 
f 25/19/25 26/20/26 27/21/27 28/22/28 29/23/29 30/24/30 31/1/31 32/2/32 33/3/33 34/4/34 35/5/35 36/6/36 37/7/37 38/8/38 39/9/39 40/10/40 41/11/41 42/12/42 43/13/43 44/14/44 45/15/45 46/16/46 47/17/47 48/18/48 
s 2
f 1/24/1 24/1/24 49/25/49 50/26/50 
f 19/27/19 18/28/18 51/29/51 52/30/52 
f 13/24/13 12/1/12 53/25/53 54/26/54 
f 7/27/7 6/28/6 55/29/55 56/30/56 
f 24/31/24 23/32/23 57/33/57 49/34/49 
f 18/35/18 17/36/17 58/37/58 51/38/51 
f 12/31/12 11/32/11 59/33/59 53/34/53 
f 23/32/23 22/39/22 60/40/60 57/33/57 
f 22/39/22 21/41/21 61/42/61 60/40/60 
f 21/41/21 20/43/20 62/44/62 61/42/61 
f 20/43/20 19/27/19 52/30/52 62/44/62 
f 17/36/17 16/45/16 63/46/63 58/37/58 
f 16/45/16 15/47/15 64/48/64 63/46/63 
f 15/47/15 14/49/14 65/50/65 64/48/64 
f 14/49/14 13/24/13 54/26/54 65/50/65 
f 11/32/11 10/39/10 66/40/66 59/33/59 
f 10/39/10 9/41/9 67/42/67 66/40/66 
f 9/41/9 8/43/8 68/44/68 67/42/67 
f 8/43/8 7/27/7 56/30/56 68/44/68 
f 69/51/69 2/52/2 1/53/1 50/54/50 
f 70/55/70 3/56/3 2/52/2 69/51/69 
f 71/57/71 4/58/4 3/56/3 70/55/70 
f 72/59/72 5/60/5 4/58/4 71/57/71 
f 55/29/55 6/28/6 5/60/5 72/59/72 
s 1
f 73/12/73 74/13/74 75/13/75 76/12/76 
f 74/61/74 77/62/77 78/62/78 75/61/75 
f 77/62/77 79/63/79 80/63/80 78/62/78 
f 79/63/79 81/64/81 82/64/82 80/63/80 
f 81/64/81 83/65/83 84/65/84 82/64/82 
f 83/65/83 85/66/85 86/66/86 84/65/84 
f 85/66/85 87/67/87 88/67/88 86/66/86 
f 87/67/87 89/68/89 90/68/90 88/67/88 
f 89/68/89 91/69/91 92/69/92 90/68/90 
f 91/69/91 93/70/93 94/70/94 92/69/92 
f 93/70/93 95/71/95 96/71/96 94/70/94 
f 95/71/95 97/72/97 98/72/98 96/71/96 
f 97/12/97 99/13/99 100/13/100 98/12/98 
f 99/13/99 101/73/101 102/73/102 100/13/100 
f 101/73/101 103/74/103 104/74/104 102/73/102 
f 103/74/103 105/75/105 106/75/106 104/74/104 
f 105/75/105 107/76/107 108/76/108 106/75/106 
f 107/76/107 109/77/109 110/77/110 108/76/108 
f 109/66/109 111/67/111 112/67/112 110/66/110 
f 111/67/111 113/68/113 114/68/114 112/67/112 
f 113/68/113 115/69/115 116/69/116 114/68/114 
f 115/69/115 117/70/117 118/70/118 116/69/116 
f 117/70/117 119/71/119 120/71/120 118/70/118 
f 119/71/119 73/72/73 76/72/76 120/71/120 
s 4
f 50/26/50 49/25/49 121/25/121 122/26/122 
f 49/34/49 57/33/57 123/33/123 121/34/121 
f 57/33/57 60/40/60 124/40/124 123/33/123 
f 60/40/60 61/42/61 125/42/125 124/40/124 
f 61/42/61 62/44/62 126/44/126 125/42/125 
f 62/44/62 52/30/52 127/30/127 126/44/126 
f 52/30/52 51/29/51 128/29/128 127/30/127 
f 51/38/51 58/37/58 129/37/129 128/38/128 
f 58/37/58 63/46/63 130/46/130 129/37/129 
f 63/46/63 64/48/64 131/48/131 130/46/130 
f 64/48/64 65/50/65 132/50/132 131/48/131 
f 65/50/65 54/26/54 133/26/133 132/50/132 
f 54/26/54 53/25/53 134/25/134 133/26/133 
f 53/34/53 59/33/59 135/33/135 134/34/134 
f 59/33/59 66/40/66 136/40/136 135/33/135 
f 66/40/66 67/42/67 137/42/137 136/40/136 
f 67/42/67 68/44/68 138/44/138 137/42/137 
f 68/44/68 56/30/56 139/30/139 138/44/138 
f 56/30/56 55/29/55 140/29/140 139/30/139 
f 55/29/55 72/59/72 141/59/141 140/29/140 
f 72/59/72 71/57/71 142/57/142 141/59/141 
f 71/57/71 70/55/70 143/55/143 142/57/142 
f 70/55/70 69/51/69 144/51/144 143/55/143 
f 69/51/69 50/54/50 122/54/122 144/51/144 
s 2
f 31/12/31 30/13/30 145/13/145 146/12/146 
f 30/61/30 29/62/29 147/62/147 145/61/145 
f 29/62/29 28/63/28 148/63/148 147/62/147 
f 28/63/28 27/64/27 149/64/149 148/63/148 
f 27/64/27 26/65/26 150/65/150 149/64/149 
f 26/65/26 25/66/25 151/66/151 150/65/150 
f 25/66/25 48/67/48 152/67/152 151/66/151 
f 48/67/48 47/68/47 153/68/153 152/67/152 
f 47/68/47 46/69/46 154/69/154 153/68/153 
f 46/69/46 45/70/45 155/70/155 154/69/154 
f 45/70/45 44/71/44 156/71/156 155/70/155 
f 44/71/44 43/72/43 157/72/157 156/71/156 
f 43/12/43 42/13/42 158/13/158 157/12/157 
f 42/13/42 41/73/41 159/73/159 158/13/158 
f 41/73/41 40/74/40 160/74/160 159/73/159 
f 40/74/40 39/75/39 161/75/161 160/74/160 
f 39/75/39 38/76/38 162/76/162 161/75/161 
f 38/76/38 37/77/37 163/77/163 162/76/162 
f 37/66/37 36/67/36 164/67/164 163/66/163 
f 36/67/36 35/68/35 165/68/165 164/67/164 
f 35/68/35 34/69/34 166/69/166 165/68/165 
f 34/69/34 33/70/33 167/70/167 166/69/166 
f 33/70/33 32/71/32 168/71/168 167/70/167 
f 32/71/32 31/72/31 146/72/146 168/71/168 
s 1
f 122/26/122 121/25/121 169/12/169 170/13/170 
f 121/34/121 123/33/123 171/71/171 169/72/169 
f 123/33/123 124/40/124 172/70/172 171/71/171 
f 124/40/124 125/42/125 173/69/173 172/70/172 
f 125/42/125 126/44/126 174/68/174 173/69/173 
f 126/44/126 127/30/127 175/67/175 174/68/174 
f 127/30/127 128/29/128 176/66/176 175/67/175 
f 128/38/128 129/37/129 177/76/177 176/77/176 
f 129/37/129 130/46/130 178/75/178 177/76/177 
f 130/46/130 131/48/131 179/74/179 178/75/178 
f 131/48/131 132/50/132 180/73/180 179/74/179 
f 132/50/132 133/26/133 181/13/181 180/73/180 
f 133/26/133 134/25/134 182/12/182 181/13/181 
f 134/34/134 135/33/135 183/71/183 182/72/182 
f 135/33/135 136/40/136 184/70/184 183/71/183 
f 136/40/136 137/42/137 185/69/185 184/70/184 
f 137/42/137 138/44/138 186/68/186 185/69/185 
f 138/44/138 139/30/139 187/67/187 186/68/186 
f 139/30/139 140/29/140 188/66/188 187/67/187 
f 140/29/140 141/59/141 189/65/189 188/66/188 
f 141/59/141 142/57/142 190/64/190 189/65/189 
f 142/57/142 143/55/143 191/63/191 190/64/190 
f 143/55/143 144/51/144 192/62/192 191/63/191 
f 144/51/144 122/54/122 170/61/170 192/62/192 
s 4
f 73/12/73 146/12/146 145/13/145 74/13/74 
f 74/61/74 145/61/145 147/62/147 77/62/77 
f 77/62/77 147/62/147 148/63/148 79/63/79 
f 79/63/79 148/63/148 149/64/149 81/64/81 
f 81/64/81 149/64/149 150/65/150 83/65/83 
f 83/65/83 150/65/150 151/66/151 85/66/85 
f 85/66/85 151/66/151 152/67/152 87/67/87 
f 87/67/87 152/67/152 153/68/153 89/68/89 
f 89/68/89 153/68/153 154/69/154 91/69/91 
f 91/69/91 154/69/154 155/70/155 93/70/93 
f 93/70/93 155/70/155 156/71/156 95/71/95 
f 95/71/95 156/71/156 157/72/157 97/72/97 
f 97/12/97 157/12/157 158/13/158 99/13/99 
f 99/13/99 158/13/158 159/73/159 101/73/101 
f 101/73/101 159/73/159 160/74/160 103/74/103 
f 103/74/103 160/74/160 161/75/161 105/75/105 
f 105/75/105 161/75/161 162/76/162 107/76/107 
f 107/76/107 162/76/162 163/77/163 109/77/109 
f 109/66/109 163/66/163 164/67/164 111/67/111 
f 111/67/111 164/67/164 165/68/165 113/68/113 
f 113/68/113 165/68/165 166/69/166 115/69/115 
f 115/69/115 166/69/166 167/70/167 117/70/117 
f 117/70/117 167/70/167 168/71/168 119/71/119 
f 119/71/119 168/71/168 146/72/146 73/72/73 
s 2
f 75/13/75 170/13/170 169/12/169 76/12/76 
f 76/72/76 169/72/169 171/71/171 120/71/120 
f 120/71/120 171/71/171 172/70/172 118/70/118 
f 118/70/118 172/70/172 173/69/173 116/69/116 
f 116/69/116 173/69/173 174/68/174 114/68/114 
f 114/68/114 174/68/174 175/67/175 112/67/112 
f 112/67/112 175/67/175 176/66/176 110/66/110 
f 110/77/110 176/77/176 177/76/177 108/76/108 
f 108/76/108 177/76/177 178/75/178 106/75/106 
f 106/75/106 178/75/178 179/74/179 104/74/104 
f 104/74/104 179/74/179 180/73/180 102/73/102 
f 102/73/102 180/73/180 181/13/181 100/13/100 
f 100/13/100 181/13/181 182/12/182 98/12/98 
f 98/72/98 182/72/182 183/71/183 96/71/96 
f 96/71/96 183/71/183 184/70/184 94/70/94 
f 94/70/94 184/70/184 185/69/185 92/69/92 
f 92/69/92 185/69/185 186/68/186 90/68/90 
f 90/68/90 186/68/186 187/67/187 88/67/88 
f 88/67/88 187/67/187 188/66/188 86/66/86 
f 86/66/86 188/66/188 189/65/189 84/65/84 
f 84/65/84 189/65/189 190/64/190 82/64/82 
f 82/64/82 190/64/190 191/63/191 80/63/80 
f 80/63/80 191/63/191 192/62/192 78/62/78 
f 78/62/78 192/62/192 170/61/170 75/61/75 
# 170 polygons

