%YAML 1.1
%TAG !u! tag:unity3d.com,2011:
--- !u!114 &11400000
MonoBehaviour:
  m_ObjectHideFlags: 0
  m_CorrespondingSourceObject: {fileID: 0}
  m_PrefabInstance: {fileID: 0}
  m_PrefabAsset: {fileID: 0}
  m_GameObject: {fileID: 0}
  m_Enabled: 1
  m_EditorHideFlags: 0
  m_Script: {fileID: 11500000, guid: e7139f8f32dac4e7da34835d9efc1a6c, type: 3}
  m_Name: VibrationManager
  m_EditorClassIdentifier: 
  useLimitOfCallsOnIOS: 0
  numberOfCallsOnIOS: 0
  callsDurationOnIOS: 0
  useLimitOfCallsOnAndroid: 0
  numberOfCallsOnAndroid: 0
  callsDurationOnAndroid: 0
