%YAML 1.1
%TAG !u! tag:unity3d.com,2011:
--- !u!1 &4051355624214849730
GameObject:
  m_ObjectHideFlags: 0
  m_CorrespondingSourceObject: {fileID: 0}
  m_PrefabInstance: {fileID: 0}
  m_PrefabAsset: {fileID: 0}
  serializedVersion: 6
  m_Component:
  - component: {fileID: 7271996036176144966}
  - component: {fileID: 3669095261046906196}
  m_Layer: 0
  m_Name: EffectsManager
  m_TagString: Untagged
  m_Icon: {fileID: 0}
  m_NavMeshLayer: 0
  m_StaticEditorFlags: 0
  m_IsActive: 1
--- !u!4 &7271996036176144966
Transform:
  m_ObjectHideFlags: 0
  m_CorrespondingSourceObject: {fileID: 0}
  m_PrefabInstance: {fileID: 0}
  m_PrefabAsset: {fileID: 0}
  m_GameObject: {fileID: 4051355624214849730}
  m_LocalRotation: {x: 0, y: 0, z: 0, w: 1}
  m_LocalPosition: {x: 0, y: 0, z: 0}
  m_LocalScale: {x: 1, y: 1, z: 1}
  m_Children: []
  m_Father: {fileID: 0}
  m_RootOrder: 0
  m_LocalEulerAnglesHint: {x: 0, y: 0, z: 0}
--- !u!114 &3669095261046906196
MonoBehaviour:
  m_ObjectHideFlags: 0
  m_CorrespondingSourceObject: {fileID: 0}
  m_PrefabInstance: {fileID: 0}
  m_PrefabAsset: {fileID: 0}
  m_GameObject: {fileID: 4051355624214849730}
  m_Enabled: 1
  m_EditorHideFlags: 0
  m_Script: {fileID: 11500000, guid: 83b95e2c61dc64aebbeae8c5f8b32300, type: 3}
  m_Name: 
  m_EditorClassIdentifier: 
  effectsInfos:
  - effect: {fileID: 2063445471940020848, guid: ff2e4c8ad0ffa4c07ac121ad6851c509,
      type: 3}
    effectType: 1
  - effect: {fileID: 3380706071928912236, guid: 2a64473215cea47e387353bdcb551d0c,
      type: 3}
    effectType: 2
